<?xml version="1.0" encoding="UTF-8"?>
<grit latest_public_release="0" current_release="1" output_all_resource_defines="false">
  <outputs>
    <output filename="grit/extensions_renderer_resources.h" type="rc_header">
      <emit emit_type='prepend'></emit>
    </output>
    <output filename="extensions_renderer_resources.pak" type="data_package" />
  </outputs>
  <release seq="1">
    <includes>
      <!-- Extension libraries. -->
      <include name="IDR_APP_VIEW_JS" file="guest_view/app_view/app_view.js" type="BINDATA" />
      <include name="IDR_ASYNC_WAITER_JS" file="async_waiter.js" type="BINDATA" />
      <include name="IDR_BROWSER_TEST_ENVIRONMENT_SPECIFIC_BINDINGS_JS" file="browser_test_environment_specific_bindings.js" type="BINDATA" />
      <include name="IDR_ENTRY_ID_MANAGER" file="entry_id_manager.js" type="BINDATA" />
      <include name="IDR_EVENT_BINDINGS_JS" file="event.js" type="BINDATA" />
      <include name="IDR_EXTENSION_OPTIONS_JS" file="guest_view/extension_options/extension_options.js" type="BINDATA"/>
      <include name="IDR_EXTENSION_OPTIONS_ATTRIBUTES_JS" file="guest_view/extension_options/extension_options_attributes.js" type="BINDATA"/>
      <include name="IDR_EXTENSION_OPTIONS_CONSTANTS_JS" file="guest_view/extension_options/extension_options_constants.js" type="BINDATA"/>
      <include name="IDR_EXTENSION_OPTIONS_EVENTS_JS" file="guest_view/extension_options/extension_options_events.js" type="BINDATA"/>
      <include name="IDR_EXTENSION_VIEW_JS" file="guest_view/extension_view/extension_view.js" type="BINDATA" />
      <include name="IDR_EXTENSION_VIEW_API_METHODS_JS" file="guest_view/extension_view/extension_view_api_methods.js" type="BINDATA" />
      <include name="IDR_EXTENSION_VIEW_ATTRIBUTES_JS" file="guest_view/extension_view/extension_view_attributes.js" type="BINDATA" />
      <include name="IDR_EXTENSION_VIEW_CONSTANTS_JS" file="guest_view/extension_view/extension_view_constants.js" type="BINDATA" />
      <include name="IDR_EXTENSION_VIEW_EVENTS_JS" file="guest_view/extension_view/extension_view_events.js" type="BINDATA" />
      <include name="IDR_EXTENSION_VIEW_INTERNAL_CUSTOM_BINDINGS_JS" file="guest_view/extension_view/extension_view_internal.js" type="BINDATA" />
      <include name="IDR_GUEST_VIEW_ATTRIBUTES_JS" file="guest_view/guest_view_attributes.js" type="BINDATA" />
      <include name="IDR_GUEST_VIEW_CONTAINER_JS" file="guest_view/guest_view_container.js" type="BINDATA" />
      <include name="IDR_GUEST_VIEW_DENY_JS" file="guest_view/guest_view_deny.js" type="BINDATA" />
      <include name="IDR_GUEST_VIEW_EVENTS_JS" file="guest_view/guest_view_events.js" type="BINDATA" />
      <include name="IDR_GUEST_VIEW_IFRAME_CONTAINER_JS" file="guest_view/guest_view_iframe_container.js" type="BINDATA" />
      <include name="IDR_GUEST_VIEW_IFRAME_JS" file="guest_view/guest_view_iframe.js" type="BINDATA" />
      <include name="IDR_GUEST_VIEW_JS" file="guest_view/guest_view.js" type="BINDATA" />
      <include name="IDR_IMAGE_UTIL_JS" file="image_util.js" type="BINDATA" />
      <include name="IDR_JSON_SCHEMA_JS" file="json_schema.js" type="BINDATA" />
      <include name="IDR_KEEP_ALIVE_JS" file="keep_alive.js" type="BINDATA" />
      <include name="IDR_KEEP_ALIVE_MOJOM_JS" file="${mojom_root}\extensions\common\mojo\keep_alive.mojom.js" use_base_dir="false" type="BINDATA" />
      <include name="IDR_LAST_ERROR_JS" file="last_error.js" type="BINDATA" />
      <include name="IDR_MESSAGING_JS" file="messaging.js" type="BINDATA" />
      <include name="IDR_MESSAGING_UTILS_JS" file="messaging_utils.js" type="BINDATA" />
      <include name="IDR_MIME_HANDLER_PRIVATE_CUSTOM_BINDINGS_JS" file="mime_handler_private_custom_bindings.js" type="BINDATA" />
      <include name="IDR_MIME_HANDLER_MOJOM_JS" file="${mojom_root}\extensions\common\api\mime_handler.mojom.js" use_base_dir="false" type="BINDATA" />
      <include name="IDR_SCHEMA_UTILS_JS" file="schema_utils.js" type="BINDATA" />
      <include name="IDR_SEND_REQUEST_JS" file="send_request.js" type="BINDATA" />
      <include name="IDR_SET_ICON_JS" file="set_icon.js" type="BINDATA" />
      <include name="IDR_TEST_CUSTOM_BINDINGS_JS" file="test_custom_bindings.js" type="BINDATA" />
      <include name="IDR_UNCAUGHT_EXCEPTION_HANDLER_JS" file="uncaught_exception_handler.js" type="BINDATA" />
      <include name="IDR_UTILS_JS" file="utils.js" type="BINDATA" />
      <include name="IDR_WEB_VIEW_ACTION_REQUESTS_JS" file="guest_view/web_view/web_view_action_requests.js" type="BINDATA" />
      <include name="IDR_WEB_VIEW_API_METHODS_JS" file="guest_view/web_view/web_view_api_methods.js" type="BINDATA" />
      <include name="IDR_WEB_VIEW_ATTRIBUTES_JS" file="guest_view/web_view/web_view_attributes.js" type="BINDATA" />
      <include name="IDR_WEB_VIEW_CONSTANTS_JS" file="guest_view/web_view/web_view_constants.js" type="BINDATA" />
      <include name="IDR_WEB_VIEW_EVENTS_JS" file="guest_view/web_view/web_view_events.js" type="BINDATA" />
      <include name="IDR_WEB_VIEW_INTERNAL_CUSTOM_BINDINGS_JS" file="guest_view/web_view/web_view_internal.js" type="BINDATA" />
      <include name="IDR_WEB_VIEW_JS" file="guest_view/web_view/web_view.js" type="BINDATA" />

      <!-- Custom bindings for APIs. -->
      <include name="IDR_APP_RUNTIME_CUSTOM_BINDINGS_JS" file="app_runtime_custom_bindings.js" type="BINDATA" />
      <include name="IDR_APP_WINDOW_CUSTOM_BINDINGS_JS" file="app_window_custom_bindings.js" type="BINDATA" />
      <include name="IDR_BINDING_JS" file="binding.js" type="BINDATA" />
      <include name="IDR_CONTEXT_MENUS_CUSTOM_BINDINGS_JS" file="context_menus_custom_bindings.js" type="BINDATA" />
      <include name="IDR_CONTEXT_MENUS_HANDLERS_JS" file="context_menus_handlers.js" type="BINDATA" />
      <include name="IDR_DECLARATIVE_WEBREQUEST_CUSTOM_BINDINGS_JS" file="declarative_webrequest_custom_bindings.js" type="BINDATA" />
      <include name="IDR_DISPLAY_SOURCE_CUSTOM_BINDINGS_JS" file="display_source_custom_bindings.js" type="BINDATA" />
      <include name="IDR_EXTENSION_CUSTOM_BINDINGS_JS" file="extension_custom_bindings.js" type="BINDATA" />
      <include name="IDR_GREASEMONKEY_API_JS" file="greasemonkey_api.js" type="BINDATA" />
      <include name="IDR_I18N_CUSTOM_BINDINGS_JS" file="i18n_custom_bindings.js" type="BINDATA" />
      <include name="IDR_MOJO_PRIVATE_CUSTOM_BINDINGS_JS" file="mojo_private_custom_bindings.js" type="BINDATA" />
      <include name="IDR_PERMISSIONS_CUSTOM_BINDINGS_JS" file="permissions_custom_bindings.js" type="BINDATA" />
      <include name="IDR_PRINTER_PROVIDER_CUSTOM_BINDINGS_JS" file="printer_provider_custom_bindings.js" type="BINDATA" />
      <include name="IDR_RUNTIME_CUSTOM_BINDINGS_JS" file="runtime_custom_bindings.js" type="BINDATA" />
      <include name="IDR_SERVICE_WORKER_BINDINGS_JS" file="service_worker_bindings.js" type="BINDATA" />
      <include name="IDR_WEB_REQUEST_CUSTOM_BINDINGS_JS" file="web_request_custom_bindings.js" type="BINDATA" />
      <include name="IDR_WEB_REQUEST_INTERNAL_CUSTOM_BINDINGS_JS" file="web_request_internal_custom_bindings.js" type="BINDATA" />
      <include name="IDR_WEB_VIEW_REQUEST_CUSTOM_BINDINGS_JS" file="guest_view/web_view/web_view_request_custom_bindings.js" type="BINDATA" />

      <!-- Custom types for APIs. -->
      <include name="IDR_STORAGE_AREA_JS" file="storage_area.js" type="BINDATA" />

      <!-- Platform app support. -->
      <include name="IDR_PLATFORM_APP_CSS" file="platform_app.css" type="BINDATA" />
      <include name="IDR_PLATFORM_APP_JS" file="platform_app.js" type="BINDATA" />

      <!-- Extension styles. -->
      <include name="IDR_EXTENSION_FONTS_CSS" file="extension_fonts.css" type="BINDATA"/>

      <!-- Media Router Mojo service and bindings. -->
      <if expr="enable_media_router">
        <include name="IDR_MEDIA_ROUTER_MOJOM_JS" file="${mojom_root}\chrome\browser\media\router\mojo\media_router.mojom.js" use_base_dir="false" type="BINDATA" />
        <include name="IDR_MEDIA_ROUTER_BINDINGS_JS" file="media_router_bindings.js" type="BINDATA" />
        <include name="IDR_MOJO_TIME_MOJOM_JS" file="${mojom_root}\mojo\common\time.mojom.js" use_base_dir="false" type="BINDATA" />
        <include name="IDR_ORIGIN_MOJOM_JS" file="${mojom_root}\url\mojo\origin.mojom.js" use_base_dir="false" type="BINDATA" />
      </if>
    </includes>
    <structures>
      <!-- Extension styles. -->
      <structure name="IDR_EXTENSION_CSS" file="extension.css" type="chrome_html" flattenhtml="true" />
    </structures>
  </release>
</grit>
